{
    "name": "jdbc-sink-swa",
    "config": {
        "connector.class": "io.confluent.connect.jdbc.JdbcSinkConnector",
        "tasks.max": "1",
        "topics": "student_worksheet_answer",
        "connection.url": "jdbc:mysql://10.148.15.211:3306/geniebook?user=kafka&password=KV3NThMHn31RalTYLjqiPMqVw00cykg9&serverTimezone=Asia/Singapore",
        "transforms": "unwrap,TSDC,TSVD,TSDS,TSDM,TSDU",
        "transforms.unwrap.type": "io.debezium.transforms.ExtractNewRecordState",
        "transforms.TSDC.type": "org.apache.kafka.connect.transforms.TimestampConverter$Value",
        "transforms.TSDC.field": "date_created",
        "transforms.TSDC.format": "yyyy-MM-dd'T'HH:mm:ss'Z'",
        "transforms.TSDC.target.type": "Timestamp",
        "transforms.TSVD.type": "org.apache.kafka.connect.transforms.TimestampConverter$Value",
        "transforms.TSVD.field": "verification_date",
        "transforms.TSVD.format": "yyyy-MM-dd'T'HH:mm:ss'Z'",
        "transforms.TSVD.target.type": "Timestamp",
        "transforms.TSDS.type": "org.apache.kafka.connect.transforms.TimestampConverter$Value",
        "transforms.TSDS.field": "date_submitted",
        "transforms.TSDS.format": "yyyy-MM-dd'T'HH:mm:ss'Z'",
        "transforms.TSDS.target.type": "Timestamp",
        "transforms.TSDM.type": "org.apache.kafka.connect.transforms.TimestampConverter$Value",
        "transforms.TSDM.field": "date_marked",
        "transforms.TSDM.format": "yyyy-MM-dd'T'HH:mm:ss'Z'",
        "transforms.TSDM.target.type": "Timestamp",
        "transforms.TSDU.type": "org.apache.kafka.connect.transforms.TimestampConverter$Value",
        "transforms.TSDU.field": "date_updated",
        "transforms.TSDU.format": "yyyy-MM-dd'T'HH:mm:ss'Z'",
        "transforms.TSDU.target.type": "Timestamp",
	"batch.size" : "1000",
        "table.name.format" : "${topic}",
        "auto.create": "true",                                                   
        "insert.mode": "upsert",                                                 
        "pk.fields": "answer_id",                                                       
        "pk.mode": "record_value"                                      
    }
}
